# Description : US Tile Grid based on the New York Times layout
# Data source : <https://www.kaggle.com/datasets/poznyakovskiy/us-tile-grid>
code,name,row,column
AL,Alabama,1,6
AK,Alaska,7,0
AZ,Arizona,2,2
AR,Arkansas,2,5
CA,California,3,0
CO,Colorado,3,3
CT,Connecticut,5,10
DC,District of Columbia,3,8
DE,Delaware,3,10
FL,Florida,0,7
GA,Georgia,1,7
HI,Hawaii,0,0
ID,Idaho,4,2
IL,Illinois,4,6
IN,Indiana,4,7
IA,Iowa,4,5
KS,Kansas,3,4
KY,Kentucky,3,6
LA,Louisiana,1,4
ME,Maine,7,11
MD,Maryland,3,9
MA,Massachusetts,6,11
MI,Michigan,5,7
MN,Minnesota,5,5
MS,Mississippi,1,5
MO,Missouri,3,5
MT,Montana,5,2
NE,Nebraska,4,4
NV,Nevada,3,1
NH,New Hampshire,6,10
NJ,New Jersey,4,10
NM,New Mexico,2,3
NY,New York,5,9
NC,North Carolina,2,8
ND,North Dakota,5,3
OH,Ohio,4,8
OK,Oklahoma,2,4
OR,Oregon,4,1
PA,Pennsylvania,4,9
RI,Rhode Island,5,11
SC,South Carolina,1,8
SD,South Dakota,5,4
TN,Tennessee,2,6
TX,Texas,1,3
UT,Utah,3,2
VT,Vermont,6,9
VA,Virginia,2,7
WA,Washington,5,1
WV,West Virginia,3,7
WI,Wisconsin,5,6
WY,Wyoming,4,3
